My Data Analysis Portfolio – exploration
…
library(here)

Warning: package 'here' was built under R version 4.2.2

here() starts at C:/Users/Raquel/GitHub/MADA/RaquelFrancisco-MADA-portfolio

library(ggplot2)

data <- readRDS(here('fluanalysis/data/SypAct_clean.rds'))
tibble(data) # to get a look at the data

# A tibble: 730 × 26
   SwollenLymphNodes ChestCongestion ChillsSweats NasalCongestion Sneeze Fatigue
   <fct>             <fct>           <fct>        <fct>           <fct>  <fct>  
 1 Yes               No              No           No              No     Yes    
 2 Yes               Yes             No           Yes             No     Yes    
 3 Yes               Yes             Yes          Yes             Yes    Yes    
 4 Yes               Yes             Yes          Yes             Yes    Yes    
 5 Yes               No              Yes          No              No     Yes    
 6 No                No              Yes          No              Yes    Yes    
 7 No                No              Yes          No              No     Yes    
 8 No                Yes             Yes          Yes             Yes    Yes    
 9 Yes               Yes             Yes          Yes             No     Yes    
10 No                Yes             No           Yes             No     Yes    
# ℹ 720 more rows
# ℹ 20 more variables: SubjectiveFever <fct>, Headache <fct>, Weakness <fct>,
#   CoughIntensity <fct>, Myalgia <fct>, RunnyNose <fct>, AbPain <fct>,
#   ChestPain <fct>, Diarrhea <fct>, EyePn <fct>, Insomnia <fct>,
#   ItchyEye <fct>, Nausea <fct>, EarPn <fct>, Pharyngitis <fct>,
#   Breathless <fct>, ToothPn <fct>, Vomit <fct>, Wheeze <fct>, BodyTemp <dbl>
…
