My Data Analysis Portfolio – fitting
…
library(performance) #evaluate model fit and performance

Warning: package 'performance' was built under R version 4.2.2

Attaching package: 'performance'

The following objects are masked from 'package:yardstick':

    mae, rmse

data <- readRDS(here('fluanalysis/data/SypAct_clean.rds')) #upload cleaned data
tibble(data) # to get a look at the data

# A tibble: 730 × 32
   SwollenLymph…¹ Chest…² Chill…³ Nasal…⁴ CoughYN Sneeze Fatigue Subje…⁵ Heada…⁶
   <fct>          <fct>   <fct>   <fct>   <fct>   <fct>  <fct>   <fct>   <fct>  
 1 Yes            No      No      No      Yes     No     Yes     Yes     Yes    
 2 Yes            Yes     No      Yes     Yes     No     Yes     Yes     Yes    
 3 Yes            Yes     Yes     Yes     No      Yes    Yes     Yes     Yes    
 4 Yes            Yes     Yes     Yes     Yes     Yes    Yes     Yes     Yes    
 5 Yes            No      Yes     No      No      No     Yes     Yes     Yes    
 6 No             No      Yes     No      Yes     Yes    Yes     Yes     Yes    
 7 No             No      Yes     No      Yes     No     Yes     Yes     No     
 8 No             Yes     Yes     Yes     Yes     Yes    Yes     Yes     Yes    
 9 Yes            Yes     Yes     Yes     Yes     No     Yes     Yes     Yes    
10 No             Yes     No      Yes     Yes     No     Yes     No      Yes    
# … with 720 more rows, 23 more variables: Weakness <fct>, WeaknessYN <fct>,
#   CoughIntensity <fct>, CoughYN2 <fct>, Myalgia <fct>, MyalgiaYN <fct>,
#   RunnyNose <fct>, AbPain <fct>, ChestPain <fct>, Diarrhea <fct>,
#   EyePn <fct>, Insomnia <fct>, ItchyEye <fct>, Nausea <fct>, EarPn <fct>,
#   Hearing <fct>, Pharyngitis <fct>, Breathless <fct>, ToothPn <fct>,
#   Vision <fct>, Vomit <fct>, Wheeze <fct>, BodyTemp <dbl>, and abbreviated
#   variable names ¹​SwollenLymphNodes, ²​ChestCongestion, ³​ChillsSweats, …
…
Linear Model: Body Temperature vs. All Variables

lm_fit_all1 <- lm_mod %>% 
  fit(BodyTemp ~ ., data = data)

tidy(lm_fit_all1) #several significant results

# A tibble: 38 × 5
   term                 estimate std.error statistic   p.value
   <chr>                   <dbl>     <dbl>     <dbl>     <dbl>
 1 (Intercept)           97.9       0.304   322.     0        
 2 SwollenLymphNodesYes  -0.165     0.0920   -1.80   0.0727   
 3 ChestCongestionYes     0.0873    0.0975    0.895  0.371    
 4 ChillsSweatsYes        0.201     0.127     1.58   0.114    
 5 NasalCongestionYes    -0.216     0.114    -1.90   0.0584   
 6 CoughYNYes             0.314     0.241     1.30   0.193    
 7 SneezeYes             -0.362     0.0983   -3.68   0.000249 
 8 FatigueYes             0.265     0.161     1.65   0.0996   
 9 SubjectiveFeverYes     0.437     0.103     4.22   0.0000271
10 HeadacheYes            0.0115    0.125     0.0913 0.927    
# … with 28 more rows
…
Logistic Model: Nausea vs. All Variables

glm_fit_all1 <- glm_mod %>% 
  fit(Nausea ~ ., data = data)

tidy(glm_fit_all1) #several significant results

# A tibble: 38 × 5
   term                 estimate std.error statistic p.value
   <chr>                   <dbl>     <dbl>     <dbl>   <dbl>
 1 (Intercept)             0.223     7.83     0.0285  0.977 
 2 SwollenLymphNodesYes   -0.251     0.196   -1.28    0.200 
 3 ChestCongestionYes      0.276     0.213    1.30    0.195 
 4 ChillsSweatsYes         0.274     0.288    0.952   0.341 
 5 NasalCongestionYes      0.426     0.255    1.67    0.0944
 6 CoughYNYes             -0.140     0.519   -0.271   0.787 
 7 SneezeYes               0.177     0.210    0.840   0.401 
 8 FatigueYes              0.229     0.372    0.616   0.538 
 9 SubjectiveFeverYes      0.278     0.225    1.23    0.218 
10 HeadacheYes             0.331     0.285    1.16    0.245 
# … with 28 more rows
…
