My Data Analysis Portfolio – machinelearing
…
library(vip)

Warning: package 'vip' was built under R version 4.2.3

Attaching package: 'vip'

The following object is masked from 'package:utils':

    vi

data <- readRDS(here('fluanalysis/data/SypAct_clean.rds')) #upload cleaned data
tibble(data) #overview of data

# A tibble: 730 × 26
   SwollenLymph…¹ Chest…² Chill…³ Nasal…⁴ Sneeze Fatigue Subje…⁵ Heada…⁶ Weakn…⁷
   <fct>          <fct>   <fct>   <fct>   <fct>  <fct>   <fct>   <fct>   <fct>  
 1 Yes            No      No      No      No     Yes     Yes     Yes     Mild   
 2 Yes            Yes     No      Yes     No     Yes     Yes     Yes     Severe 
 3 Yes            Yes     Yes     Yes     Yes    Yes     Yes     Yes     Severe 
 4 Yes            Yes     Yes     Yes     Yes    Yes     Yes     Yes     Severe 
 5 Yes            No      Yes     No      No     Yes     Yes     Yes     Modera…
 6 No             No      Yes     No      Yes    Yes     Yes     Yes     Modera…
 7 No             No      Yes     No      No     Yes     Yes     No      Mild   
 8 No             Yes     Yes     Yes     Yes    Yes     Yes     Yes     Severe 
 9 Yes            Yes     Yes     Yes     No     Yes     Yes     Yes     Modera…
10 No             Yes     No      Yes     No     Yes     No      Yes     Modera…
# … with 720 more rows, 17 more variables: CoughIntensity <fct>, Myalgia <fct>,
#   RunnyNose <fct>, AbPain <fct>, ChestPain <fct>, Diarrhea <fct>,
#   EyePn <fct>, Insomnia <fct>, ItchyEye <fct>, Nausea <fct>, EarPn <fct>,
#   Pharyngitis <fct>, Breathless <fct>, ToothPn <fct>, Vomit <fct>,
#   Wheeze <fct>, BodyTemp <dbl>, and abbreviated variable names
#   ¹​SwollenLymphNodes, ²​ChestCongestion, ³​ChillsSweats, ⁴​NasalCongestion,
#   ⁵​SubjectiveFever, ⁶​Headache, ⁷​Weakness
…
! Fold1, Repeat5: internal: A correlation computation is required, but `estimate` is constant and ha...

! Fold2, Repeat5: internal: A correlation computation is required, but `estimate` is constant and ha...

! Fold3, Repeat5: internal: A correlation computation is required, but `estimate` is constant and ha...

! Fold4, Repeat5: internal: A correlation computation is required, but `estimate` is constant and ha...

! Fold5, Repeat5: internal: A correlation computation is required, but `estimate` is constant and ha...

tree_res %>% 
  collect_metrics()

# A tibble: 50 × 8
   cost_complexity tree_depth .metric .estimator     mean     n  std_err .config
             <dbl>      <int> <chr>   <chr>         <dbl> <int>    <dbl> <chr>  
 1    0.0000000001          1 rmse    standard     1.19      25  0.0181  Prepro…
 2    0.0000000001          1 rsq     standard     0.0361    25  0.00422 Prepro…
 3    0.0000000178          1 rmse    standard     1.19      25  0.0181  Prepro…
 4    0.0000000178          1 rsq     standard     0.0361    25  0.00422 Prepro…
 5    0.00000316            1 rmse    standard     1.19      25  0.0181  Prepro…
 6    0.00000316            1 rsq     standard     0.0361    25  0.00422 Prepro…
 7    0.000562              1 rmse    standard     1.19      25  0.0181  Prepro…
 8    0.000562              1 rsq     standard     0.0361    25  0.00422 Prepro…
 9    0.1                   1 rmse    standard     1.21      25  0.0177  Prepro…
10    0.1                   1 rsq     standard   NaN          0 NA       Prepro…
# … with 40 more rows
…
#TRAIN AND TUNE THE MODEL
lr_res <- 
  lasso_wf %>% 
  tune_grid(resamples = fold_data,
            grid = lr_reg_grid,
            control = control_grid(verbose = FALSE, save_pred = TRUE),
            metrics = NULL)

lr_res %>%
  collect_metrics()

# A tibble: 60 × 7
    penalty .metric .estimator   mean     n std_err .config              
      <dbl> <chr>   <chr>       <dbl> <int>   <dbl> <chr>                
 1 0.0001   rmse    standard   1.18      25 0.0167  Preprocessor1_Model01
 2 0.0001   rsq     standard   0.0819    25 0.00875 Preprocessor1_Model01
 3 0.000127 rmse    standard   1.18      25 0.0167  Preprocessor1_Model02
 4 0.000127 rsq     standard   0.0819    25 0.00875 Preprocessor1_Model02
 5 0.000161 rmse    standard   1.18      25 0.0167  Preprocessor1_Model03
 6 0.000161 rsq     standard   0.0819    25 0.00875 Preprocessor1_Model03
 7 0.000204 rmse    standard   1.18      25 0.0167  Preprocessor1_Model04
 8 0.000204 rsq     standard   0.0819    25 0.00875 Preprocessor1_Model04
 9 0.000259 rmse    standard   1.18      25 0.0167  Preprocessor1_Model05
10 0.000259 rsq     standard   0.0819    25 0.00875 Preprocessor1_Model05
# … with 50 more rows
…
