My Data Analysis Portfolio – modeleval
…
── Conflicts ───────────────────────────────────────── tidymodels_conflicts() ──
✖ scales::discard() masks purrr::discard()
✖ dplyr::filter()   masks stats::filter()
✖ recipes::fixed()  masks stringr::fixed()
✖ dplyr::lag()      masks stats::lag()
✖ yardstick::spec() masks readr::spec()
✖ recipes::step()   masks stats::step()
• Use suppressPackageStartupMessages() to eliminate package startup messages

library(dplyr)

data <- readRDS(here('fluanalysis/data/SypAct_clean.rds')) #upload cleaned data
tibble(data) #overview of data

# A tibble: 730 × 26
   SwollenLymph…¹ Chest…² Chill…³ Nasal…⁴ Sneeze Fatigue Subje…⁵ Heada…⁶ Weakn…⁷
   <fct>          <fct>   <fct>   <fct>   <fct>  <fct>   <fct>   <fct>   <fct>  
 1 Yes            No      No      No      No     Yes     Yes     Yes     Mild   
 2 Yes            Yes     No      Yes     No     Yes     Yes     Yes     Severe 
 3 Yes            Yes     Yes     Yes     Yes    Yes     Yes     Yes     Severe 
 4 Yes            Yes     Yes     Yes     Yes    Yes     Yes     Yes     Severe 
 5 Yes            No      Yes     No      No     Yes     Yes     Yes     Modera…
 6 No             No      Yes     No      Yes    Yes     Yes     Yes     Modera…
 7 No             No      Yes     No      No     Yes     Yes     No      Mild   
 8 No             Yes     Yes     Yes     Yes    Yes     Yes     Yes     Severe 
 9 Yes            Yes     Yes     Yes     No     Yes     Yes     Yes     Modera…
10 No             Yes     No      Yes     No     Yes     No      Yes     Modera…
# … with 720 more rows, 17 more variables: CoughIntensity <fct>, Myalgia <fct>,
#   RunnyNose <fct>, AbPain <fct>, ChestPain <fct>, Diarrhea <fct>,
#   EyePn <fct>, Insomnia <fct>, ItchyEye <fct>, Nausea <fct>, EarPn <fct>,
#   Pharyngitis <fct>, Breathless <fct>, ToothPn <fct>, Vomit <fct>,
#   Wheeze <fct>, BodyTemp <dbl>, and abbreviated variable names
#   ¹​SwollenLymphNodes, ²​ChestCongestion, ³​ChillsSweats, ⁴​NasalCongestion,
#   ⁵​SubjectiveFever, ⁶​Headache, ⁷​Weakness
…
Computational engine: glm 

Train the model from the resulting predictors

data_fit <- 
  mod_flow %>% 
  fit(data = train_data)

data_fit %>% 
  extract_fit_parsnip() %>% 
  tidy()

# A tibble: 32 × 5
   term                 estimate std.error statistic p.value
   <chr>                   <dbl>     <dbl>     <dbl>   <dbl>
 1 (Intercept)            -2.83      9.07     -0.312  0.755 
 2 SwollenLymphNodesYes   -0.435     0.235    -1.85   0.0649
 3 ChestCongestionYes      0.277     0.252     1.10   0.271 
 4 ChillsSweatsYes         0.333     0.355     0.939  0.348 
 5 NasalCongestionYes      0.233     0.300     0.778  0.437 
 6 SneezeYes               0.115     0.253     0.455  0.649 
 7 FatigueYes              0.288     0.460     0.626  0.531 
 8 SubjectiveFeverYes      0.402     0.271     1.48   0.138 
 9 HeadacheYes             0.644     0.367     1.75   0.0794
10 WeaknessMild           -0.274     0.574    -0.478  0.633 
# … with 22 more rows

Use a trained workflow to Predict

predict(data_fit, test_data)

# A tibble: 183 × 1
   .pred_class
   <fct>      
 1 No         
 2 Yes        
 3 No         
 4 No         
 5 No         
 6 No         
 7 No         
 8 No         
 9 No         
10 Yes        
# … with 173 more rows

data_aug <- 
  augment(data_fit, test_data)

# The data look like: 
data_aug %>%
  select(Nausea, .pred_No, .pred_Yes)

# A tibble: 183 × 3
   Nausea .pred_No .pred_Yes
   <fct>     <dbl>     <dbl>
 1 No        0.961    0.0394
 2 Yes       0.121    0.879 
 3 Yes       0.769    0.231 
 4 Yes       0.744    0.256 
 5 Yes       0.759    0.241 
 6 No        0.771    0.229 
 7 No        0.544    0.456 
 8 No        0.745    0.255 
 9 No        0.941    0.0585
10 Yes       0.171    0.829 
# … with 173 more rows
…
Computational engine: lm 

Train the model from the resulting predictors

data_fit3 <- 
  mod_flow3 %>% 
  fit(data = train_data)

data_fit3 %>% 
  extract_fit_parsnip() %>% 
  tidy()

# A tibble: 32 × 5
   term                 estimate std.error statistic   p.value
   <chr>                   <dbl>     <dbl>     <dbl>     <dbl>
 1 (Intercept)           98.2        0.352   279.    0        
 2 SwollenLymphNodesYes  -0.104      0.108    -0.960 0.337    
 3 ChestCongestionYes     0.0566     0.114     0.496 0.620    
 4 ChillsSweatsYes        0.279      0.151     1.84  0.0664   
 5 NasalCongestionYes    -0.213      0.133    -1.60  0.110    
 6 SneezeYes             -0.400      0.116    -3.44  0.000627 
 7 FatigueYes             0.375      0.187     2.00  0.0461   
 8 SubjectiveFeverYes     0.517      0.122     4.25  0.0000259
 9 HeadacheYes           -0.0614     0.151    -0.406 0.685    
10 WeaknessMild          -0.0473     0.226    -0.209 0.834    
# … with 22 more rows

Use a trained workflow to Predict

predict(data_fit3, test_data)

# A tibble: 183 × 1
   .pred
   <dbl>
 1  99.5
 2  98.9
 3  99.0
 4  98.7
 5  98.5
 6  99.0
 7  99.5
 8  99.7
 9  98.9
10  99.6
# … with 173 more rows

data_aug3 <- 
  augment(data_fit3, test_data)

# The data look like: 
data_aug3 %>%
  select(BodyTemp, .pred)

# A tibble: 183 × 2
   BodyTemp .pred
      <dbl> <dbl>
 1     98.3  99.5
 2    101.   98.9
 3     98.8  99.0
 4     98.5  98.7
 5     98.1  98.5
 6     98.4  99.0
 7     99.5  99.5
 8     98.8  99.7
 9    102.   98.9
10     99.7  99.6
# … with 173 more rows
…
data_fit4 %>% 
  extract_fit_parsnip() %>% 
  tidy()

# A tibble: 2 × 5
  term         estimate std.error statistic p.value
  <chr>           <dbl>     <dbl>     <dbl>   <dbl>
1 (Intercept)    99.2      0.0969   1024.   0      
2 RunnyNoseYes   -0.362    0.115      -3.16 0.00168

#predict from test data
predict(data_fit4, test_data)

# A tibble: 183 × 1
   .pred
   <dbl>
 1  99.2
 2  98.9
 3  98.9
 4  98.9
 5  98.9
 6  98.9
 7  99.2
 8  99.2
 9  99.2
10  99.2
# … with 173 more rows

#augment test data
data_aug4 <- 
  augment(data_fit4, test_data)

#the data look like:
data_aug4 %>%
  select(BodyTemp, .pred)

# A tibble: 183 × 2
   BodyTemp .pred
      <dbl> <dbl>
 1     98.3  99.2
 2    101.   98.9
 3     98.8  98.9
 4     98.5  98.9
 5     98.1  98.9
 6     98.4  98.9
 7     99.5  99.2
 8     98.8  99.2
 9    102.   99.2
10     99.7  99.2
# … with 173 more rows
…
