My Data Analysis Portfolio - Model4_DataWrangling
…
 StratificationID2
 Mode:logical     
 NA's:7168        

as.tibble(raw)

Warning: `as.tibble()` was deprecated in tibble 2.0.0.
ℹ Please use `as_tibble()` instead.
ℹ The signature and semantics have changed, see `?as_tibble`.

# A tibble: 7,168 × 30
    Year Locat…¹ Locat…² DataS…³ Categ…⁴ Indic…⁵ Respo…⁶ Data_…⁷ Data_…⁸ Data_…⁹
   <dbl> <chr>   <chr>   <chr>   <chr>   <chr>   <chr>   <chr>   <chr>     <dbl>
 1  2020 HI      Hawaii  BRFSS   Disabi… Disabi… Veteran %       Age-ad…     8.9
 2  2020 OH      Ohio    BRFSS   Disabi… Disabi… Veteran %       Age-ad…    11.9
 3  2020 WV      West V… BRFSS   Disabi… Disabi… Veteran %       Age-ad…    33.4
 4  2020 ME      Maine   BRFSS   Disabi… Disabi… Non-Ve… %       Age-ad…     4.2
 5  2020 MI      Michig… BRFSS   Disabi… Disabi… Non-Ve… %       Age-ad…     3.4
 6  2020 OH      Ohio    BRFSS   Disabi… Disabi… Veteran %       Age-ad…    12.3
 7  2020 TX      Texas   BRFSS   Disabi… Disabi… Non-Ve… %       Age-ad…    74.9
 8  2020 NH      New Ha… BRFSS   Disabi… Disabi… Veteran %       Age-ad…    NA  
 9  2020 LA      Louisi… BRFSS   Disabi… Disabi… Veteran %       Age-ad…    64.9
10  2020 AL      Alabama BRFSS   Disabi… Disabi… Veteran %       Age-ad…     6.5
# … with 7,158 more rows, 20 more variables: Data_Value_Alt <dbl>,
#   Data_Value_Footnote_Symbol <chr>, Data_Value_Footnote <chr>,
#   Low_Confidence_Limit <dbl>, High_Confidence_Limit <dbl>, Number <dbl>,
#   WeightedNumber <dbl>, StratificationCategory1 <chr>, Stratification1 <chr>,
#   StratificationCategory2 <lgl>, Stratification2 <lgl>, CategoryID <chr>,
#   IndicatorID <chr>, LocationID <chr>, ResponseID <chr>,
#   DataValueTypeID <chr>, StratificationCategoryID1 <chr>, …
…
disdata <- raw %>%
select(LocationAbbr, Response, WeightedNumber, Stratification1)

str(disdata)

tibble [7,168 × 4] (S3: tbl_df/tbl/data.frame)
 $ LocationAbbr   : chr [1:7168] "HI" "OH" "WV" "ME" ...
 $ Response       : chr [1:7168] "Veteran" "Veteran" "Veteran" "Non-Veteran" ...
 $ WeightedNumber : num [1:7168] 20925 158777 73287 42424 259481 ...
 $ Stratification1: chr [1:7168] "Hearing Disability" "Mobility Disability" "Any Disability" "Vision Disability" ...

as.tibble(disdata)

# A tibble: 7,168 × 4
   LocationAbbr Response    WeightedNumber Stratification1     
   <chr>        <chr>                <dbl> <chr>               
 1 HI           Veteran              20925 Hearing Disability  
 2 OH           Veteran             158777 Mobility Disability 
 3 WV           Veteran              73287 Any Disability      
 4 ME           Non-Veteran          42424 Vision Disability   
 5 MI           Non-Veteran         259481 Vision Disability   
 6 OH           Veteran              89980 Cognitive Disability
 7 TX           Non-Veteran       13660252 No Disability       
 8 NH           Veteran                 NA Self-care Disability
 9 LA           Veteran             203697 No Disability       
10 AL           Veteran              31424 Self-care Disability
# … with 7,158 more rows
…
tibble(vetdata)

# A tibble: 756 × 4
   LocationAbbr Response    WeightedNumber Stratification1     
   <chr>        <chr>                <dbl> <chr>               
 1 HI           Veteran              20925 Hearing Disability  
 2 OH           Veteran             158777 Mobility Disability 
 3 WV           Veteran              73287 Any Disability      
 4 ME           Non-Veteran          42424 Vision Disability   
 5 MI           Non-Veteran         259481 Vision Disability   
 6 OH           Veteran              89980 Cognitive Disability
 7 NH           Veteran                 NA Self-care Disability
 8 AL           Veteran              31424 Self-care Disability
 9 GU           Veteran               2102 Cognitive Disability
10 DC           Veteran                 NA Hearing Disability  
# … with 746 more rows
…
tibble(vetdata2)

# A tibble: 702 × 4
   LocationAbbr Response    WeightedNumber Stratification1     
   <chr>        <chr>                <dbl> <chr>               
 1 HI           Veteran              20925 Hearing Disability  
 2 OH           Veteran             158777 Mobility Disability 
 3 WV           Veteran              73287 Any Disability      
 4 ME           Non-Veteran          42424 Vision Disability   
 5 MI           Non-Veteran         259481 Vision Disability   
 6 OH           Veteran              89980 Cognitive Disability
 7 AL           Veteran              31424 Self-care Disability
 8 GU           Veteran               2102 Cognitive Disability
 9 MO           Veteran             223953 Any Disability      
10 KS           Veteran              10746 Self-care Disability
# … with 692 more rows
…
