My Data Analysis Portfolio - Tidy Tuesday Exercise 2
…
percent_eggs
double
computed percentage of cage-free eggs relative to all table eggs,This variable is not available for data sourced from the Egg Markets Overview report

source
character
Original USDA report from which data are sourced. Values correspond to titles of PDF reports. Date of report is included in title.

#Exploring Egg Production

tibble(eggproduction)

# A tibble: 220 × 6
   observed_month prod_type     prod_process   n_hens     n_eggs source         
   <date>         <chr>         <chr>           <dbl>      <dbl> <chr>          
 1 2016-07-31     hatching eggs all          57975000 1147000000 ChicEggs-09-23…
 2 2016-08-31     hatching eggs all          57595000 1142700000 ChicEggs-10-21…
 3 2016-09-30     hatching eggs all          57161000 1093300000 ChicEggs-11-22…
 4 2016-10-31     hatching eggs all          56857000 1126700000 ChicEggs-12-23…
 5 2016-11-30     hatching eggs all          57116000 1096600000 ChicEggs-01-24…
 6 2016-12-31     hatching eggs all          57750000 1132900000 ChicEggs-02-28…
 7 2017-01-31     hatching eggs all          57991000 1123400000 ChicEggs-03-21…
 8 2017-02-28     hatching eggs all          58286000 1014500000 ChicEggs-04-21…
 9 2017-03-31     hatching eggs all          58735000 1128500000 ChicEggs-05-22…
10 2017-04-30     hatching eggs all          59072000 1097200000 ChicEggs-06-23…
# ℹ 210 more rows
…
#Exploring Cage Free %

tibble(cagefreepercentages)

# A tibble: 96 × 4
   observed_month percent_hens percent_eggs source                             
   <date>                <dbl>        <dbl> <chr>                              
 1 2007-12-31              3.2           NA Egg-Markets-Overview-2019-10-19.pdf
 2 2008-12-31              3.5           NA Egg-Markets-Overview-2019-10-19.pdf
 3 2009-12-31              3.6           NA Egg-Markets-Overview-2019-10-19.pdf
 4 2010-12-31              4.4           NA Egg-Markets-Overview-2019-10-19.pdf
 5 2011-12-31              5.4           NA Egg-Markets-Overview-2019-10-19.pdf
 6 2012-12-31              6             NA Egg-Markets-Overview-2019-10-19.pdf
 7 2013-12-31              5.9           NA Egg-Markets-Overview-2019-10-19.pdf
 8 2014-12-31              5.7           NA Egg-Markets-Overview-2019-10-19.pdf
 9 2015-12-31              8.6           NA Egg-Markets-Overview-2019-10-19.pdf
10 2016-04-30              9.9           NA Egg-Markets-Overview-2016-12-02.pdf
# ℹ 86 more rows
…
Will merge data via date

ALLdata <- inner_join(cagefreepercentages, eggproduction, by="observed_month")

Warning in inner_join(cagefreepercentages, eggproduction, by = "observed_month"): Detected an unexpected many-to-many relationship between `x` and `y`.
ℹ Row 11 of `x` matches multiple rows in `y`.
ℹ Row 2 of `y` matches multiple rows in `x`.
ℹ If a many-to-many relationship is expected, set `relationship =
  "many-to-many"` to silence this warning.

tibble(ALLdata)

# A tibble: 238 × 9
   observed_month percent_hens percent_eggs source.x      prod_type prod_process
   <date>                <dbl>        <dbl> <chr>         <chr>     <chr>       
 1 2016-08-31             10.1         9.63 computed      hatching… all         
 2 2016-08-31             10.1         9.63 computed      table eg… all         
 3 2016-08-31             10.1         9.63 computed      table eg… cage-free (…
 4 2016-08-31             10.1         9.63 computed      table eg… cage-free (…
 5 2016-08-31             12          NA    Egg-Markets-… hatching… all         
 6 2016-08-31             12          NA    Egg-Markets-… table eg… all         
 7 2016-08-31             12          NA    Egg-Markets-… table eg… cage-free (…
 8 2016-08-31             12          NA    Egg-Markets-… table eg… cage-free (…
 9 2016-09-30             10.1         9.56 computed      hatching… all         
10 2016-09-30             10.1         9.56 computed      table eg… all         
# ℹ 228 more rows
# ℹ 3 more variables: n_hens <dbl>, n_eggs <dbl>, source.y <chr>

#Now to avoid confusion remove sources and prod_process "all"

allclean <- ALLdata %>%
  select(observed_month  | percent_hens | n_hens | percent_eggs |  n_eggs | prod_process) %>%
  filter(!prod_process == 'all')

tibble(allclean)

# A tibble: 120 × 6
   observed_month percent_hens   n_hens percent_eggs     n_eggs prod_process    
   <date>                <dbl>    <dbl>        <dbl>      <dbl> <chr>           
 1 2016-08-31             10.1 17000000         9.63 397884291. cage-free (non-…
 2 2016-08-31             10.1 13500000         9.63 315968297. cage-free (orga…
 3 2016-08-31             12   17000000        NA    397884291. cage-free (non-…
 4 2016-08-31             12   13500000        NA    315968297. cage-free (orga…
 5 2016-09-30             10.1 17000000         9.56 383774914. cage-free (non-…
 6 2016-09-30             10.1 13500000         9.56 304762114. cage-free (orga…
 7 2016-10-31             12.3 23500000        11.6  546374469. cage-free (non-…
 8 2016-10-31             12.3 14100000        11.6  327825000  cage-free (orga…
 9 2016-11-30             12.1 23500000        11.4  530864743. cage-free (non-…
10 2016-11-30             12.1 14100000        11.4  318519771. cage-free (orga…
# ℹ 110 more rows
…
